module github.com/rogeriotadim/rinha-de-backend-go

go 1.21

require (
	github.com/go-redis/cache/v9 v9.0.0
	github.com/gofiber/fiber/v2 v2.50.0
	github.com/google/uuid v1.3.1
	github.com/redis/go-redis/v9 v9.3.0
)

require (
	github.com/cespare/xxhash/v2 v2.2.0 // indirect
	github.com/dgryski/go-rendezvous v0.0.0-20200823014737-9f7001d12a5f // indirect
	github.com/fsnotify/fsnotify v1.6.0 // indirect
	github.com/hashicorp/hcl v1.0.0 // indirect
	github.com/jackc/pgpassfile v1.0.0 // indirect
	github.com/jackc/pgservicefile v0.0.0-20221227161230-091c0ba34f0a // indirect
	github.com/jackc/puddle/v2 v2.2.1 // indirect
	github.com/magiconair/properties v1.8.7 // indirect
	github.com/mitchellh/mapstructure v1.5.0 // indirect
	github.com/onsi/gomega v1.28.0 // indirect
	github.com/pelletier/go-toml/v2 v2.1.0 // indirect
	github.com/sagikazarmark/locafero v0.3.0 // indirect
	github.com/sagikazarmark/slog-shim v0.1.0 // indirect
	github.com/sourcegraph/conc v0.3.0 // indirect
	github.com/spf13/afero v1.10.0 // indirect
	github.com/spf13/cast v1.5.1 // indirect
	github.com/spf13/pflag v1.0.5 // indirect
	github.com/subosito/gotenv v1.6.0 // indirect
	github.com/vmihailenco/go-tinylfu v0.2.2 // indirect
	github.com/vmihailenco/msgpack/v5 v5.3.4 // indirect
	github.com/vmihailenco/tagparser/v2 v2.0.0 // indirect
	go.uber.org/atomic v1.9.0 // indirect
	go.uber.org/multierr v1.9.0 // indirect
	golang.org/x/crypto v0.14.0 // indirect
	golang.org/x/exp v0.0.0-20230905200255-921286631fa9 // indirect
	golang.org/x/net v0.17.0 // indirect
	golang.org/x/sync v0.3.0 // indirect
	golang.org/x/text v0.13.0 // indirect
	gopkg.in/ini.v1 v1.67.0 // indirect
)

require (
	github.com/andybalholm/brotli v1.0.5 // indirect
	github.com/davecgh/go-spew v1.1.2-0.20180830191138-d8f796af33cc // indirect
	github.com/jackc/pgx/v5 v5.4.3
	github.com/klauspost/compress v1.17.0 // indirect
	github.com/lib/pq v1.10.9
	github.com/mattn/go-colorable v0.1.13 // indirect
	github.com/mattn/go-isatty v0.0.19 // indirect
	github.com/mattn/go-runewidth v0.0.15 // indirect
	github.com/pmezard/go-difflib v1.0.1-0.20181226105442-5d4384ee4fb2 // indirect
	github.com/rivo/uniseg v0.2.0 // indirect
	github.com/spf13/viper v1.17.0
	github.com/stretchr/testify v1.8.4
	github.com/valyala/bytebufferpool v1.0.0 // indirect
	github.com/valyala/fasthttp v1.50.0 // indirect
	github.com/valyala/tcplisten v1.0.0 // indirect
	golang.org/x/sys v0.13.0 // indirect
	gopkg.in/yaml.v3 v3.0.1 // indirect
)
